^C:\USERS\ДАРИНКА\DOCUMENTS\VISUAL STUDIO 2010\PROJECTS\CPPPRACT1LAB3\CPPPRACT1LAB3\DEBUG\ARRSTRUCT.OBJ|C:\USERS\ДАРИНКА\DOCUMENTS\VISUAL STUDIO 2010\PROJECTS\CPPPRACT1LAB3\CPPPRACT1LAB3\DEBUG\CPPPRACT1LAB3.EXE.EMBED.MANIFEST.RES|C:\USERS\ДАРИНКА\DOCUMENTS\VISUAL STUDIO 2010\PROJECTS\CPPPRACT1LAB3\CPPPRACT1LAB3\DEBUG\MAIN.OBJ
C:\USERS\даринка\DOCUMENTS\VISUAL STUDIO 2010\PROJECTS\CPPPRACT1LAB3\DEBUG\CPPPRACT1LAB3.ILK
C:\USERS\даринка\DOCUMENTS\VISUAL STUDIO 2010\PROJECTS\CPPPRACT1LAB3\DEBUG\CPPPRACT1LAB3.EXE
C:\USERS\Даринка\DOCUMENTS\VISUAL STUDIO 2010\PROJECTS\CPPPRACT1LAB3\CPPPRACT1LAB3\DEBUG\CPPPRACT1LAB3.EXE.INTERMEDIATE.MANIFEST
C:\USERS\ДАРИНКА\DOCUMENTS\VISUAL STUDIO 2010\PROJECTS\CPPPRACT1LAB3\DEBUG\CPPPRACT1LAB3.PDB
